"Network","Client","Client Account","Unit Type","Job Site","Completion Status","Service Rate","Referral Fee"
"Noise","DSGi",5890007,"DIGITAL READY CHECK","Field Call","Complete Job","40.83",3
"Noise","DSGi",5890007,"DIGITAL READY CHECK","Workshop","Complete Job","N/A",3
"Noise","DSGi",5890007,"TROUBLESHOOTING","Field Call","Complete Job","40.83",3
"Noise","DSGi",5890007,"TROUBLESHOOTING","Workshop","Complete Job","N/A",3
"Noise","DSGi",5890007,"TUTORIAL","Field Call","Complete Job","40.83",3
"Noise","DSGi",5890007,"TUTORIAL","Workshop","Complete Job","N/A",3
"Noise","","","DIGITAL READY CHECK","Field Call","Complete Job","40.83",3
"Noise","","","DIGITAL READY CHECK","Workshop","Complete Job","N/A",3
"Noise","","","TROUBLESHOOTING","Field Call","Complete Job","40.83",3
"Noise","","","TROUBLESHOOTING","Workshop","Complete Job","N/A",3
"Noise","","","TUTORIAL","Field Call","Complete Job","40.83",3
"Noise","","","TUTORIAL","Workshop","Complete Job","N/A",3
